{
  "CacheSourceKey": "aitjaz",
  "CachePdfKey": "aitjaz/aitjaz-d1c37m.pdf",
  "CacheXpzKey": "aitjaz/aitjaz-1dba5v8.xpz",
  "CacheInfoKey": "aitjaz/aitjaz-1dba5v8.json",
  "CacheCopyKey": null,
  "Document": "D:\\DMSLatest\\Vouchers\\Payment Voucher\\F03-0100-ProjectPlanner(1).xls",
  "DocumentHandlerType": null,
  "DocumentHandlerParameters": null,
  "DocumentLocation": null,
  "DocumentFileName": "F03-0100-ProjectPlanner(1).xls",
  "InputOptions": {
    "$type": "GleamTech.DocumentUltimate.SpreadsheetInputOptions, GleamTech.DocumentUltimate",
    "OutputSheetRange": "visible",
    "RenderColumnsFitToPages": 1,
    "RenderRowsFitToPages": 0,
    "RenderHeadings": false,
    "RenderGridlines": false,
    "RenderTitleColumns": null,
    "RenderTitleRows": null,
    "RenderArea": null,
    "RenderBlackAndWhite": false,
    "RenderCenterHorizontally": false,
    "RenderCenterVertically": false,
    "Format": "Xls",
    "Password": null
  },
  "PdfOutputOptions": {
    "Watermarks": [
      {
        "$type": "GleamTech.DocumentUltimate.TextWatermark, GleamTech.DocumentUltimate",
        "Text": "DocumentUltimate",
        "TextAlignment": "Left",
        "Font": null,
        "FontColor": "Red",
        "UseFontSize": false,
        "HorizontalAlignment": "Center",
        "VerticalAlignment": "Center",
        "HorizontalDistance": 0.0,
        "VerticalDistance": 0.0,
        "DistanceIsPercentage": false,
        "Width": 50.0,
        "Height": 50.0,
        "SizeIsPercentage": true,
        "Rotation": 0.0,
        "Opacity": 50.0,
        "InBackground": false,
        "AnnotationMode": false,
        "PrintVisible": true,
        "ScreenVisible": true,
        "PageRange": "all"
      }
    ],
    "FastWebViewEnabled": false,
    "Password": null,
    "Format": "Pdf"
  },
  "XpzOutputOptions": {
    "Password": "aitjaz",
    "HighQualityEnabled": false,
    "Format": "Xpz"
  }
}